[
	{
		"application": "yeswiki",
		"url": "https://github.com/YunoHost-Apps/yeswiki_ynh/tree/testing",
		"arguments": {
			"domain": ".",
			"path": "yeswiki",
			"wiki_name": "YesWiki"
		},
		"default": true,
		"extensions": {
			"plugins": [
				"lms"
			],
			"themes": [
				"colibris"
			],
			"configuration": {
				"favorite_theme": "colibris",
				"favorite_squelette": "1col.tpl.html",
				"favorite_style": "colibris.bootstrap.min.css"
			},
			"imports": [
				{
					"importurl": "https://colibris-universite.org/mooc-democratie",
					"key": "xxx-xxxx-xxxxx-xxx",
					"courses": ["all"]
				},
				{
					"importurl": "https://colibris-universite.org/parcours-alimentation",
					"key": "yyy-yyyy-yyyyy-yyy",
					"courses": ["ParcoursAlimentation"]
				}
			]
		}
	},
	{
		"application": "humhub",
		"arguments": {
			"domain": ".",
			"path": "humhub"
		}
	},
	{
		"application": "question2answer",
		"arguments": {
			"domain": ".",
			"path": "forum",
			"q2a_name": "Q2A"
		}
	},
	{
		"application": "cryptpad",
		"arguments": {
			"domain": "pads."
		}
	}
]
